{
  "extends": "tslint:recommended",
  "rulesDirectory": [
    "node_modules/codelyzer"
  ],
  "rules": {
    "callable-types": true,
    "class-name": true,
    "comment-format": [
      true,
      "check-space"
    ],
    "curly": true,
    "eofline": true,
    "forin": true,
    "import-blacklist": [
      true,
      "rxjs"
    ],
    "import-spacing": true,
    "indent": [
      true,
      "spaces"
    ],
    "interface-over-type-literal": true,
    "label-position": true,
    "max-line-length": [
      true,
      140
    ],
    "member-access": false,
    "member-ordering": [
      true,
      "static-before-instance",
      "variables-before-functions"
    ],
    "no-arg": true,
    "no-bitwise": true,
    "no-console": [
      true,
      "debug",
      "info",
      "time",
      "timeEnd",
      "trace"
    ],
    "no-construct": true,
    "no-debugger": true,
    "no-duplicate-variable": true,
    "no-empty": false,
    "no-empty-interface": true,
    "no-eval": true,
    "no-inferrable-types": true,
    "no-shadowed-variable": true,
    "no-string-literal": false,
    "no-string-throw": true,
    "no-switch-case-fall-through": true,
    "no-trailing-whitespace": true,
    "no-unused-expression": true,
    "no-use-before-declare": true,
    "no-var-keyword": true,
    "object-literal-sort-keys": false,
    "one-line": [
      true,
      "check-open-brace",
      "check-catch",
      "check-else",
      "check-whitespace"
    ],
    "prefer-const": true,
    "quotemark": [
      true,
      "single"
    ],
    "radix": true,
    "semicolon": [
      "always"
    ],
    "triple-equals": [
      true,
      "allow-null-check"
    ],
    "typedef-whitespace": [
      true,
      {
        "call-signature": "nospace",
        "index-signature": "nospace",
        "parameter": "nospace",
        "property-declaration": "nospace",
        "variable-declaration": "nospace"
      }
    ],
    "typeof-compare": true,
    "unified-signatures": true,
    "variable-name": false,
    "whitespace": [
      true,
      "check-branch",
      "check-decl",
      "check-operator",
      "check-separator",
      "check-type"
    ],
    "directive-selector": [
      true,
      "attribute",
      "app",
      "camelCase"
    ],
    "component-selector": [
      true,
      "element",
      "app",
      "kebab-case"
    ],
    "no-inputs-metadata-property": true,
    "no-outputs-metadata-property": true,
    "no-host-metadata-property": true,
    "no-input-rename": true,
    "no-output-rename": true,
    "use-lifecycle-interface": true,
    "use-pipe-transform-interface": true,
    "component-class-suffix": true,
    "directive-class-suffix": true,
    // codelyzer
    "angular-whitespace": [
      true,
      "check-interpolation",
      "check-semicolon"
    ],
    "template-banana-in-box": true,
    "template-no-negated-async": true,
    "directive-selector": [
      true,
      "attribute",
      "app",
      "camelCase"
    ],
    "component-selector": [
      true,
      "element",
      "app",
      "kebab-case"
    ],
    "no-inputs-metadata-property": true,
    "no-outputs-metadata-property": true,
    "no-host-metadata-property": true,
    "use-component-view-encapsulation": true,
    "no-attribute-decorator": true,
    "no-output-native": {
      "severity": "warning"
    },
    "no-input-rename": true,
    "no-output-rename": true,
    "no-output-on-prefix": {
      "severity": "warning"
    },
    "no-forward-ref": true,
    "no-unused-css": true,
    "use-lifecycle-interface": true,
    "contextual-lifecycle": true,
    "template-use-track-by-function": {
      "severity": "warning"
    },
    "use-pipe-transform-interface": true,
    "component-class-suffix": true,
    "directive-class-suffix": true,
    "no-pipe-impure": true,
    "template-i18n": false,
    // custom
    "linebreak-style": false,
    "new-parens": true,
    "no-var-requires": true,
    "only-arrow-functions": true,
    "trailing-comma": [
      true,
      {
        "multiline": "never",
        "singleline": "never"
      }
    ],
    "typedef": [
      true,
      "call-signature",
      "parameter",
      "member-variable-declaration"
    ],
    "use-isnan": true,
    "variable-name": [
      true,
      "allow-leading-underscore",
      "ban-keywords"
    ],
    "curly": false,
    "align": [
      true,
      "parameters",
      "statements",
      "arguments"
    ],
    "radix": false,
    "no-unused-variable": true,
    "no-console": [
      true,
      "debug",
      "info",
      "time",
      "timeEnd",
      "trace",
      "log"
    ],
    "no-empty": true,
    "max-classes-per-file": 1,
    // override tslint default
    "ordered-imports": false,
    "arrow-parens": false,
    "object-literal-shorthand": false,
    "no-use-before-declare": false,
    "no-inferrable-types": false,
    "import-blacklist": [
      false,
      "rxjs"
    ]
  }
}
